# File exported by Houdini 17.5.258 (www.sidefx.com)
# 1450 points
# 5556 vertices
# 1330 primitives
# Bounds: [-2, 0, -0.5] to [2, 4, 0.5]
g 
v -1.66666675 4 0.493999988
v -1.33333349 4 0.493999988
v -1.33333325 3.99957871 0.496208519
v -1.66666663 3.99957871 0.496208519
v -1.33333337 3.99824238 0.498242617
v -1.66666663 3.99824238 0.498242617
v -1.778 4 0.493999988
v -1.77797771 3.99957871 0.496208519
v -1.77790749 3.99824262 0.498242617
v -1.82429492 3.99511933 0.493999988
v -1.82420516 3.99470544 0.496208578
v -1.82392025 3.99339151 0.498242617
v -1.87135541 3.97941685 0.493999988
v -1.87117612 3.97903204 0.496208519
v -1.87060761 3.97781348 0.498242617
v -1.91536927 3.95239496 0.493999958
v -1.9151063 3.95206141 0.496208489
v -1.91427302 3.9510057 0.498242617
v -1.9523952 3.91536951 0.493999988
v -1.95206201 3.91510653 0.496208578
v -1.95100594 3.91427279 0.498242617
v -1.97941685 3.87135553 0.493999988
v -1.9790324 3.871176 0.496208519
v -1.97781348 3.87060761 0.498242617
v -1.99511945 3.82429481 0.493999988
v -1.99470508 3.82420444 0.496208519
v -1.99339163 3.82392001 0.498242617
v -2 3.77799988 0.493999988
v -1.9995786 3.77797747 0.496208519
v -1.99824238 3.77790737 0.498242617
v -2 3.75 0.493999988
v -1.9995786 3.74999976 0.496208519
v -1.99824238 3.74999976 0.498242617
v -2 3.5 0.493999988
v -1.9995786 3.49999976 0.496208519
v -1.99824238 3.49999976 0.498242617
v -2 3.25 0.493999988
v -1.9995786 3.24999976 0.496208519
v -1.99824238 3.24999976 0.498242617
v -2 3 0.493999988
v -1.9995786 2.99999976 0.496208519
v -1.99824238 3 0.498242617
v -2 2.75 0.493999988
v -1.9995786 2.74999976 0.496208519
v -1.99824238 2.75 0.498242617
v -2 2.5 0.493999988
v -1.9995786 2.49999976 0.496208519
v -1.99824238 2.49999976 0.498242617
v -2 2.25 0.493999988
v -1.9995786 2.25 0.496208519
v -1.99824238 2.25 0.498242617
v -2 2 0.493999988
v -1.9995786 2 0.496208519
v -1.99824238 1.99999988 0.498242617
v -2 1.75 0.493999988
v -1.9995786 1.74999988 0.496208519
v -1.99824238 1.74999988 0.498242617
v -2 1.5 0.493999988
v -1.9995786 1.49999988 0.496208519
v -1.99824238 1.5 0.498242617
v -2 1.25 0.493999988
v -1.9995786 1.24999988 0.496208519
v -1.99824238 1.24999988 0.498242617
v -2 1 0.493999988
v -1.9995786 1 0.496208519
v -1.99824238 0.99999994 0.498242617
v -2 0.75 0.493999988
v -1.9995786 0.74999994 0.496208519
v -1.99824238 0.75 0.498242617
v -2 0.5 0.493999988
v -1.9995786 0.5 0.496208519
v -1.99824238 0.49999997 0.498242617
v -2 0.25 0.493999988
v -1.9995786 0.25 0.496208519
v -1.99824238 0.249999985 0.498242617
v -2 0.222000003 0.493999988
v -1.9995786 0.222022131 0.496208519
v -1.99824238 0.222092375 0.498242617
v -1.99511945 0.175705194 0.493999988
v -1.99470508 0.175794989 0.496208519
v -1.99339163 0.176079825 0.498242617
v -1.97941685 0.128644541 0.493999988
v -1.9790324 0.128823742 0.496208519
v -1.97781372 0.129392102 0.498242646
v -1.9523952 0.0846307427 0.493999958
v -1.95206201 0.0848934948 0.496208519
v -1.95100594 0.0857268199 0.498242617
v -1.91536927 0.0476047918 0.493999988
v -1.9151063 0.047937803 0.496208519
v -1.9142729 0.0489939824 0.498242617
v -1.87135541 0.0205831267 0.493999988
v -1.87117612 0.0209674332 0.496208519
v -1.87060773 0.0221862961 0.498242617
v -1.82429492 0.00488069979 0.493999988
v -1.82420504 0.00529483613 0.496208519
v -1.82392025 0.00660830177 0.498242617
v -1.778 0 0.493999988
v -1.77797771 0.000421270088 0.496208519
v -1.77790749 0.0017573589 0.498242617
v -1.66666675 0 0.493999988
v -1.66666663 0.000421270088 0.496208519
v -1.66666663 0.0017573589 0.498242617
v -1.33333349 0 0.493999988
v -1.33333325 0.000421270088 0.496208519
v -1.33333337 0.0017573589 0.498242617
v -1 0 0.493999988
v -1 0.000421270088 0.496208519
v -0.99999994 0.0017573589 0.498242617
v -0.666666746 0 0.493999988
v -0.666666627 0.000421270088 0.496208519
v -0.666666687 0.0017573589 0.498242617
v -0.333333492 0 0.493999988
v -0.333333462 0.000421270088 0.496208519
v -0.333333492 0.0017573589 0.498242617
v 0 0 0.493999988
v 0 0.000421270088 0.496208519
v 0 0.0017573589 0.498242617
v 0.333333254 0 0.493999988
v 0.333333254 0.000421270088 0.496208519
v 0.333333254 0.0017573589 0.498242617
v 0.666666627 0 0.493999988
v 0.666666508 0.000421270088 0.496208519
v 0.666666567 0.0017573589 0.498242617
v 1 0 0.493999988
v 1 0.000421270088 0.496208519
v 0.99999994 0.0017573589 0.498242617
v 1.33333325 0 0.493999988
v 1.33333302 0.000421270088 0.496208519
v 1.33333313 0.0017573589 0.498242617
v 1.66666663 0 0.493999988
v 1.66666663 0.000421270088 0.496208519
v 1.66666663 0.0017573589 0.498242617
v 1.778 0 0.493999988
v 1.77797771 0.000421270088 0.496208519
v 1.77790749 0.0017573589 0.498242617
v 1.82429492 0.00488069979 0.493999988
v 1.82420504 0.00529483659 0.496208519
v 1.82392025 0.00660830177 0.498242617
v 1.87135541 0.0205831267 0.493999988
v 1.87117612 0.0209674351 0.496208519
v 1.87060773 0.0221862942 0.498242617
v 1.91536927 0.0476047918 0.493999958
v 1.9151063 0.047937803 0.496208489
v 1.91427302 0.0489939898 0.498242617
v 1.9523952 0.0846307427 0.493999988
v 1.95206201 0.0848934948 0.496208578
v 1.95100594 0.0857268199 0.498242617
v 1.97941685 0.128644541 0.493999988
v 1.9790324 0.128823742 0.496208519
v 1.97781348 0.129392087 0.498242617
v 1.99511945 0.175705194 0.493999988
v 1.99470508 0.175794989 0.496208519
v 1.99339163 0.176079825 0.498242617
v 2 0.222000003 0.493999988
v 1.9995786 0.222022131 0.496208519
v 1.99824238 0.222092375 0.498242617
v 2 0.25 0.493999988
v 1.9995786 0.25 0.496208519
v 1.99824238 0.249999985 0.498242617
v 2 0.5 0.493999988
v 1.9995786 0.5 0.496208519
v 1.99824238 0.49999997 0.498242617
v 2 0.75 0.493999988
v 1.9995786 0.74999994 0.496208519
v 1.99824238 0.75 0.498242617
v 2 1 0.493999988
v 1.9995786 1 0.496208519
v 1.99824238 0.99999994 0.498242617
v 2 1.25 0.493999988
v 1.9995786 1.24999988 0.496208519
v 1.99824238 1.24999988 0.498242617
v 2 1.5 0.493999988
v 1.9995786 1.49999988 0.496208519
v 1.99824238 1.5 0.498242617
v 2 1.75 0.493999988
v 1.9995786 1.74999988 0.496208519
v 1.99824238 1.74999988 0.498242617
v 2 2 0.493999988
v 1.9995786 2 0.496208519
v 1.99824238 1.99999988 0.498242617
v 2 2.25 0.493999988
v 1.9995786 2.25 0.496208519
v 1.99824238 2.25 0.498242617
v 2 2.5 0.493999988
v 1.9995786 2.49999976 0.496208519
v 1.99824238 2.49999976 0.498242617
v 2 2.75 0.493999988
v 1.9995786 2.74999976 0.496208519
v 1.99824238 2.75 0.498242617
v 2 3 0.493999988
v 1.9995786 2.99999976 0.496208519
v 1.99824238 3 0.498242617
v 2 3.25 0.493999988
v 1.9995786 3.24999976 0.496208519
v 1.99824238 3.24999976 0.498242617
v 2 3.5 0.493999988
v 1.9995786 3.49999976 0.496208519
v 1.99824238 3.49999976 0.498242617
v 2 3.75 0.493999988
v 1.9995786 3.74999976 0.496208519
v 1.99824238 3.74999976 0.498242617
v 2 3.77799988 0.493999988
v 1.9995786 3.77797747 0.496208519
v 1.99824238 3.77790737 0.498242617
v 1.99511945 3.82429481 0.493999988
v 1.99470508 3.82420444 0.496208519
v 1.99339163 3.82392001 0.498242617
v 1.97941685 3.87135506 0.493999988
v 1.9790324 3.87117577 0.496208519
v 1.97781348 3.87060738 0.498242617
v 1.9523952 3.91536927 0.493999958
v 1.95206237 3.91510701 0.496208578
v 1.95100594 3.91427279 0.498242617
v 1.91536927 3.95239496 0.493999988
v 1.9151063 3.95206141 0.496208519
v 1.9142729 3.9510057 0.498242617
v 1.87135541 3.97941685 0.493999988
v 1.87117612 3.97903204 0.496208519
v 1.87060761 3.97781348 0.498242617
v 1.82429492 3.99511957 0.493999988
v 1.82420504 3.99470472 0.496208519
v 1.82392025 3.99339151 0.498242617
v 1.778 4 0.493999988
v 1.77797771 3.99957871 0.496208519
v 1.77790749 3.99824238 0.498242617
v 1.66666663 4 0.493999988
v 1.66666663 3.99957871 0.496208519
v 1.66666663 3.99824238 0.498242617
v 1.33333325 4 0.493999988
v 1.33333302 3.99957871 0.496208519
v 1.33333313 3.99824238 0.498242617
v 1 4 0.493999988
v 1 3.99957871 0.496208519
v 0.99999994 3.99824238 0.498242617
v 0.666666627 4 0.493999988
v 0.666666508 3.99957871 0.496208519
v 0.666666567 3.99824238 0.498242617
v 0.333333254 4 0.493999988
v 0.333333254 3.99957871 0.496208519
v 0.333333254 3.99824238 0.498242617
v 0 4 0.493999988
v 0 3.99957871 0.496208519
v 0 3.99824238 0.498242617
v -0.333333492 4 0.493999988
v -0.333333462 3.99957871 0.496208519
v -0.333333492 3.99824238 0.498242617
v -0.666666746 4 0.493999988
v -0.666666627 3.99957871 0.496208519
v -0.666666687 3.99824238 0.498242617
v -1 4 0.493999988
v -1 3.99957871 0.496208519
v -0.99999994 3.99824238 0.498242617
v -1.33333349 3.99399996 0.5
v -1.66666675 3.99399996 0.5
v -1.66666663 3.99620819 0.499578685
v -1.33333325 3.99620819 0.499578685
v -1 3.99399996 0.5
v -1 3.99620819 0.499578685
v -0.666666746 3.99399996 0.5
v -0.666666627 3.99620819 0.499578685
v -0.333333492 3.99399996 0.5
v -0.333333462 3.99620819 0.499578685
v 0 3.99399996 0.5
v 0 3.99620819 0.499578685
v 0.333333254 3.99399996 0.5
v 0.333333254 3.99620819 0.499578685
v 0.666666627 3.99399996 0.5
v 0.666666508 3.99620819 0.499578685
v 1 3.99399996 0.5
v 1 3.99620819 0.499578685
v 1.33333325 3.99399996 0.5
v 1.33333302 3.99620819 0.499578685
v 1.66666663 3.99399996 0.5
v 1.66666663 3.99620819 0.499578685
v 1.77768457 3.99399996 0.5
v 1.77780056 3.99620819 0.499578685
v 1.82301581 3.9892211 0.5
v 1.82348657 3.9913919 0.499578685
v 1.86880302 3.97394323 0.5
v 1.86974251 3.97595787 0.499578685
v 1.91162705 3.94765186 0.5
v 1.91300428 3.94939756 0.499578685
v 1.94765222 3.91162705 0.49999997
v 1.94939792 3.91300464 0.499578685
v 1.97394323 3.86880279 0.5
v 1.97595799 3.86974263 0.499578744
v 1.9892211 3.82301569 0.5
v 1.99139214 3.82348633 0.499578685
v 1.99399996 3.77768445 0.5
v 1.99620831 3.77780056 0.499578685
v 1.99399996 3.75 0.5
v 1.99620831 3.74999976 0.499578685
v 1.99399996 3.5 0.5
v 1.99620831 3.49999976 0.499578685
v 1.99399996 3.25 0.5
v 1.99620831 3.24999976 0.499578685
v 1.99399996 3 0.5
v 1.99620831 2.99999976 0.499578685
v 1.99399996 2.75 0.5
v 1.99620831 2.74999976 0.499578685
v 1.99399996 2.5 0.5
v 1.99620831 2.49999976 0.499578685
v 1.99399996 2.25 0.5
v 1.99620831 2.25 0.499578685
v 1.99399996 2 0.5
v 1.99620831 2 0.499578685
v 1.99399996 1.75 0.5
v 1.99620831 1.74999988 0.499578685
v 1.99399996 1.5 0.5
v 1.99620831 1.49999988 0.499578685
v 1.99399996 1.25 0.5
v 1.99620831 1.24999988 0.499578685
v 1.99399996 1 0.5
v 1.99620831 1 0.499578685
v 1.99399996 0.75 0.5
v 1.99620831 0.74999994 0.499578685
v 1.99399996 0.5 0.5
v 1.99620831 0.5 0.499578685
v 1.99399996 0.25 0.5
v 1.99620831 0.25 0.499578685
v 1.99399996 0.222315401 0.5
v 1.99620831 0.222199291 0.499578685
v 1.9892211 0.176984265 0.5
v 1.99139214 0.176513419 0.499578685
v 1.97394323 0.131196871 0.5
v 1.97595787 0.130257353 0.499578685
v 1.94765222 0.0883730054 0.5
v 1.94939792 0.0869954899 0.499578685
v 1.91162705 0.0523478091 0.49999997
v 1.91300452 0.0506019294 0.499578685
v 1.86880314 0.0260566901 0.5
v 1.86974251 0.0240418985 0.499578685
v 1.82301581 0.0107791042 0.5
v 1.82348657 0.00860793237 0.499578685
v 1.77768457 0.00599999912 0.5
v 1.77780056 0.00379143073 0.499578685
v 1.66666663 0.00599999912 0.5
v 1.66666663 0.00379143073 0.499578685
v 1.33333325 0.00599999912 0.5
v 1.33333302 0.00379143073 0.499578685
v 1 0.00599999912 0.5
v 1 0.00379143073 0.499578685
v 0.666666627 0.00599999912 0.5
v 0.666666508 0.00379143073 0.499578685
v 0.333333254 0.00599999912 0.5
v 0.333333254 0.00379143073 0.499578685
v 0 0.00599999912 0.5
v 0 0.00379143073 0.499578685
v -0.333333492 0.00599999912 0.5
v -0.333333462 0.00379143073 0.499578685
v -0.666666746 0.00599999912 0.5
v -0.666666627 0.00379143073 0.499578685
v -1 0.00599999912 0.5
v -1 0.00379143073 0.499578685
v -1.33333349 0.00599999912 0.5
v -1.33333325 0.00379143073 0.499578685
v -1.66666675 0.00599999912 0.5
v -1.66666663 0.00379143073 0.499578685
v -1.77768457 0.00599999912 0.5
v -1.77780056 0.00379143073 0.499578685
v -1.82301581 0.0107791042 0.5
v -1.82348657 0.00860793237 0.499578685
v -1.86880314 0.0260566901 0.5
v -1.86974251 0.0240418985 0.499578685
v -1.91162705 0.0523478091 0.5
v -1.91300428 0.0506019257 0.499578685
v -1.94765222 0.0883730054 0.49999997
v -1.94939792 0.0869954899 0.499578685
v -1.97394323 0.131196871 0.5
v -1.97595787 0.130257368 0.499578744
v -1.9892211 0.176984265 0.5
v -1.99139214 0.176513419 0.499578685
v -1.99399996 0.222315401 0.5
v -1.99620831 0.222199291 0.499578685
v -1.99399996 0.25 0.5
v -1.99620831 0.25 0.499578685
v -1.99399996 0.5 0.5
v -1.99620831 0.5 0.499578685
v -1.99399996 0.75 0.5
v -1.99620831 0.74999994 0.499578685
v -1.99399996 1 0.5
v -1.99620831 1 0.499578685
v -1.99399996 1.25 0.5
v -1.99620831 1.24999988 0.499578685
v -1.99399996 1.5 0.5
v -1.99620831 1.49999988 0.499578685
v -1.99399996 1.75 0.5
v -1.99620831 1.74999988 0.499578685
v -1.99399996 2 0.5
v -1.99620831 2 0.499578685
v -1.99399996 2.25 0.5
v -1.99620831 2.25 0.499578685
v -1.99399996 2.5 0.5
v -1.99620831 2.49999976 0.499578685
v -1.99399996 2.75 0.5
v -1.99620831 2.74999976 0.499578685
v -1.99399996 3 0.5
v -1.99620831 2.99999976 0.499578685
v -1.99399996 3.25 0.5
v -1.99620831 3.24999976 0.499578685
v -1.99399996 3.5 0.5
v -1.99620831 3.49999976 0.499578685
v -1.99399996 3.75 0.5
v -1.99620831 3.74999976 0.499578685
v -1.99399996 3.77768445 0.5
v -1.99620831 3.77780056 0.499578685
v -1.9892211 3.82301569 0.5
v -1.99139214 3.82348633 0.499578685
v -1.97394323 3.86880326 0.5
v -1.97595787 3.86974263 0.499578685
v -1.94765222 3.91162729 0.5
v -1.94939792 3.91300464 0.499578685
v -1.91162705 3.94765186 0.49999997
v -1.91300452 3.94939756 0.499578685
v -1.86880302 3.97394323 0.5
v -1.86974251 3.97595787 0.499578685
v -1.82301581 3.98922086 0.5
v -1.82348657 3.99139166 0.499578685
v -1.77768457 3.99399996 0.5
v -1.7778008 3.99620867 0.499578744
v 1.99399996 0.222315401 -0.5
v 1.9892211 0.176984265 -0.5
v 1.99139214 0.176513419 -0.499578685
v 1.99620831 0.222199291 -0.499578685
v 1.99339163 0.176079825 -0.498242617
v 1.99824238 0.222092375 -0.498242617
v 1.99399996 0.25 -0.5
v 1.99620831 0.25 -0.499578685
v 1.99824238 0.249999985 -0.498242617
v 1.99399996 0.5 -0.5
v 1.99620831 0.5 -0.499578685
v 1.99824238 0.49999997 -0.498242617
v 1.99399996 0.75 -0.5
v 1.99620831 0.74999994 -0.499578685
v 1.99824238 0.75 -0.498242617
v 1.99399996 1 -0.5
v 1.99620831 1 -0.499578685
v 1.99824238 0.99999994 -0.498242617
v 1.99399996 1.25 -0.5
v 1.99620831 1.24999988 -0.499578685
v 1.99824238 1.24999988 -0.498242617
v 1.99399996 1.5 -0.5
v 1.99620831 1.49999988 -0.499578685
v 1.99824238 1.5 -0.498242617
v 1.99399996 1.75 -0.5
v 1.99620831 1.74999988 -0.499578685
v 1.99824238 1.74999988 -0.498242617
v 1.99399996 2 -0.5
v 1.99620831 2 -0.499578685
v 1.99824238 1.99999988 -0.498242617
v 1.99399996 2.25 -0.5
v 1.99620831 2.25 -0.499578685
v 1.99824238 2.25 -0.498242617
v 1.99399996 2.5 -0.5
v 1.99620831 2.49999976 -0.499578685
v 1.99824238 2.49999976 -0.498242617
v 1.99399996 2.75 -0.5
v 1.99620831 2.74999976 -0.499578685
v 1.99824238 2.75 -0.498242617
v 1.99399996 3 -0.5
v 1.99620831 2.99999976 -0.499578685
v 1.99824238 3 -0.498242617
v 1.99399996 3.25 -0.5
v 1.99620831 3.24999976 -0.499578685
v 1.99824238 3.24999976 -0.498242617
v 1.99399996 3.5 -0.5
v 1.99620831 3.49999976 -0.499578685
v 1.99824238 3.49999976 -0.498242617
v 1.99399996 3.75 -0.5
v 1.99620831 3.74999976 -0.499578685
v 1.99824238 3.74999976 -0.498242617
v 1.99399996 3.77768445 -0.5
v 1.99620831 3.77780056 -0.499578685
v 1.99824238 3.77790737 -0.498242617
v 1.9892211 3.82301569 -0.5
v 1.99139214 3.82348633 -0.499578685
v 1.99339163 3.82392001 -0.498242617
v 1.97394323 3.86880326 -0.5
v 1.97595787 3.86974263 -0.499578685
v 1.9778136 3.87060761 -0.498242617
v 1.94765222 3.91162729 -0.5
v 1.94939792 3.91300464 -0.499578685
v 1.95100594 3.9142735 -0.498242646
v 1.91162705 3.94765186 -0.49999997
v 1.91300452 3.94939756 -0.499578685
v 1.9142729 3.95100546 -0.498242617
v 1.86880302 3.97394323 -0.5
v 1.86974251 3.97595787 -0.499578685
v 1.87060785 3.97781372 -0.498242617
v 1.82301581 3.98922086 -0.5
v 1.82348669 3.99139214 -0.499578744
v 1.82392037 3.99339175 -0.498242617
v 1.77768457 3.99399996 -0.5
v 1.7778008 3.99620867 -0.499578744
v 1.77790749 3.99824238 -0.498242617
v 1.66666675 3.99399996 -0.5
v 1.66666663 3.99620819 -0.499578685
v 1.66666663 3.99824238 -0.498242617
v 1.33333349 3.99399996 -0.5
v 1.33333325 3.99620819 -0.499578685
v 1.33333337 3.99824238 -0.498242617
v 1 3.99399996 -0.5
v 1 3.99620819 -0.499578685
v 0.99999994 3.99824238 -0.498242617
v 0.666666746 3.99399996 -0.5
v 0.666666627 3.99620819 -0.499578685
v 0.666666687 3.99824238 -0.498242617
v 0.333333492 3.99399996 -0.5
v 0.333333462 3.99620819 -0.499578685
v 0.333333492 3.99824238 -0.498242617
v 0 3.99399996 -0.5
v 0 3.99620819 -0.499578685
v 0 3.99824238 -0.498242617
v -0.333333254 3.99399996 -0.5
v -0.333333254 3.99620819 -0.499578685
v -0.333333254 3.99824238 -0.498242617
v -0.666666627 3.99399996 -0.5
v -0.666666508 3.99620819 -0.499578685
v -0.666666567 3.99824238 -0.498242617
v -1 3.99399996 -0.5
v -1 3.99620819 -0.499578685
v -0.99999994 3.99824238 -0.498242617
v -1.33333325 3.99399996 -0.5
v -1.33333302 3.99620819 -0.499578685
v -1.33333313 3.99824238 -0.498242617
v -1.66666663 3.99399996 -0.5
v -1.66666663 3.99620819 -0.499578685
v -1.66666663 3.99824238 -0.498242617
v -1.77768457 3.99399996 -0.5
v -1.77780056 3.99620819 -0.499578685
v -1.77790749 3.99824238 -0.498242617
v -1.82301581 3.9892211 -0.5
v -1.82348657 3.9913919 -0.499578685
v -1.82392025 3.99339151 -0.498242617
v -1.86880302 3.97394323 -0.5
v -1.86974251 3.97595787 -0.499578685
v -1.87060761 3.97781372 -0.498242617
v -1.91162705 3.94765186 -0.5
v -1.91300428 3.94939756 -0.499578685
v -1.9142729 3.95100546 -0.498242617
v -1.94765222 3.91162705 -0.49999997
v -1.94939792 3.91300464 -0.499578685
v -1.95100594 3.91427302 -0.498242587
v -1.97394323 3.86880279 -0.5
v -1.97595799 3.86974263 -0.499578744
v -1.9778136 3.87060738 -0.498242617
v -1.9892211 3.82301569 -0.5
v -1.99139214 3.82348633 -0.499578685
v -1.99339163 3.82392001 -0.498242617
v -1.99399996 3.77768445 -0.5
v -1.99620831 3.77780056 -0.499578685
v -1.99824238 3.77790737 -0.498242617
v -1.99399996 3.75 -0.5
v -1.99620831 3.74999976 -0.499578685
v -1.99824238 3.74999976 -0.498242617
v -1.99399996 3.5 -0.5
v -1.99620831 3.49999976 -0.499578685
v -1.99824238 3.49999976 -0.498242617
v -1.99399996 3.25 -0.5
v -1.99620831 3.24999976 -0.499578685
v -1.99824238 3.24999976 -0.498242617
v -1.99399996 3 -0.5
v -1.99620831 2.99999976 -0.499578685
v -1.99824238 3 -0.498242617
v -1.99399996 2.75 -0.5
v -1.99620831 2.74999976 -0.499578685
v -1.99824238 2.75 -0.498242617
v -1.99399996 2.5 -0.5
v -1.99620831 2.49999976 -0.499578685
v -1.99824238 2.49999976 -0.498242617
v -1.99399996 2.25 -0.5
v -1.99620831 2.25 -0.499578685
v -1.99824238 2.25 -0.498242617
v -1.99399996 2 -0.5
v -1.99620831 2 -0.499578685
v -1.99824238 1.99999988 -0.498242617
v -1.99399996 1.75 -0.5
v -1.99620831 1.74999988 -0.499578685
v -1.99824238 1.74999988 -0.498242617
v -1.99399996 1.5 -0.5
v -1.99620831 1.49999988 -0.499578685
v -1.99824238 1.5 -0.498242617
v -1.99399996 1.25 -0.5
v -1.99620831 1.24999988 -0.499578685
v -1.99824238 1.24999988 -0.498242617
v -1.99399996 1 -0.5
v -1.99620831 1 -0.499578685
v -1.99824238 0.99999994 -0.498242617
v -1.99399996 0.75 -0.5
v -1.99620831 0.74999994 -0.499578685
v -1.99824238 0.75 -0.498242617
v -1.99399996 0.5 -0.5
v -1.99620831 0.5 -0.499578685
v -1.99824238 0.49999997 -0.498242617
v -1.99399996 0.25 -0.5
v -1.99620831 0.25 -0.499578685
v -1.99824238 0.249999985 -0.498242617
v -1.99399996 0.222315401 -0.5
v -1.99620831 0.222199291 -0.499578685
v -1.99824238 0.222092375 -0.498242617
v -1.9892211 0.176984265 -0.5
v -1.99139214 0.176513419 -0.499578685
v -1.99339163 0.176079825 -0.498242617
v -1.97394323 0.131196871 -0.5
v -1.97595787 0.130257353 -0.499578685
v -1.9778136 0.129392087 -0.498242617
v -1.94765222 0.0883730054 -0.5
v -1.94939792 0.0869954899 -0.499578685
v -1.95100594 0.0857268274 -0.498242646
v -1.91162705 0.0523478091 -0.49999997
v -1.91300452 0.0506019294 -0.499578685
v -1.9142729 0.0489939824 -0.498242617
v -1.86880314 0.0260566901 -0.5
v -1.86974251 0.0240418985 -0.499578685
v -1.87060773 0.0221862961 -0.498242617
v -1.82301581 0.0107791042 -0.5
v -1.82348657 0.00860793237 -0.499578685
v -1.82392025 0.00660830177 -0.498242617
v -1.77768457 0.00599999912 -0.5
v -1.77780056 0.00379143073 -0.499578685
v -1.77790749 0.0017573589 -0.498242617
v -1.66666663 0.00599999912 -0.5
v -1.66666663 0.00379143073 -0.499578685
v -1.66666663 0.0017573589 -0.498242617
v -1.33333325 0.00599999912 -0.5
v -1.33333302 0.00379143073 -0.499578685
v -1.33333313 0.0017573589 -0.498242617
v -1 0.00599999912 -0.5
v -1 0.00379143073 -0.499578685
v -0.99999994 0.0017573589 -0.498242617
v -0.666666627 0.00599999912 -0.5
v -0.666666508 0.00379143073 -0.499578685
v -0.666666567 0.0017573589 -0.498242617
v -0.333333254 0.00599999912 -0.5
v -0.333333254 0.00379143073 -0.499578685
v -0.333333254 0.0017573589 -0.498242617
v 0 0.00599999912 -0.5
v 0 0.00379143073 -0.499578685
v 0 0.0017573589 -0.498242617
v 0.333333492 0.00599999912 -0.5
v 0.333333462 0.00379143073 -0.499578685
v 0.333333492 0.0017573589 -0.498242617
v 0.666666746 0.00599999912 -0.5
v 0.666666627 0.00379143073 -0.499578685
v 0.666666687 0.0017573589 -0.498242617
v 1 0.00599999912 -0.5
v 1 0.00379143073 -0.499578685
v 0.99999994 0.0017573589 -0.498242617
v 1.33333349 0.00599999912 -0.5
v 1.33333325 0.00379143073 -0.499578685
v 1.33333337 0.0017573589 -0.498242617
v 1.66666675 0.00599999912 -0.5
v 1.66666663 0.00379143073 -0.499578685
v 1.66666663 0.0017573589 -0.498242617
v 1.77768457 0.00599999912 -0.5
v 1.77780056 0.00379143073 -0.499578685
v 1.77790749 0.0017573589 -0.498242617
v 1.82301581 0.0107791042 -0.5
v 1.82348657 0.00860793237 -0.499578685
v 1.82392025 0.00660830177 -0.498242617
v 1.86880314 0.0260566901 -0.5
v 1.86974251 0.0240418985 -0.499578685
v 1.87060773 0.0221862942 -0.498242617
v 1.91162705 0.0523478091 -0.5
v 1.91300428 0.0506019257 -0.499578685
v 1.9142729 0.0489939824 -0.498242617
v 1.94765222 0.0883730054 -0.49999997
v 1.94939792 0.0869954899 -0.499578685
v 1.95100594 0.0857268274 -0.498242617
v 1.97394323 0.131196871 -0.5
v 1.97595787 0.130257368 -0.499578744
v 1.9778136 0.129392087 -0.498242617
v 1.99511945 0.175705194 -0.493999988
v 2 0.222000003 -0.493999988
v 1.9995786 0.222022131 -0.496208519
v 1.99470508 0.175794989 -0.496208519
v 1.97941685 0.128644541 -0.493999988
v 1.9790324 0.128823742 -0.496208519
v 1.9523952 0.0846307427 -0.493999958
v 1.95206201 0.0848934948 -0.496208519
v 1.91536927 0.0476047918 -0.493999988
v 1.9151063 0.047937803 -0.496208519
v 1.87135541 0.0205831267 -0.493999988
v 1.87117612 0.0209674332 -0.496208519
v 1.82429492 0.00488069979 -0.493999988
v 1.82420504 0.00529483613 -0.496208519
v 1.778 0 -0.493999988
v 1.77797771 0.000421270088 -0.496208519
v 1.66666675 0 -0.493999988
v 1.66666663 0.000421270088 -0.496208519
v 1.33333349 0 -0.493999988
v 1.33333325 0.000421270088 -0.496208519
v 1 0 -0.493999988
v 1 0.000421270088 -0.496208519
v 0.666666746 0 -0.493999988
v 0.666666627 0.000421270088 -0.496208519
v 0.333333492 0 -0.493999988
v 0.333333462 0.000421270088 -0.496208519
v 0 0 -0.493999988
v 0 0.000421270088 -0.496208519
v -0.333333254 0 -0.493999988
v -0.333333254 0.000421270088 -0.496208519
v -0.666666627 0 -0.493999988
v -0.666666508 0.000421270088 -0.496208519
v -1 0 -0.493999988
v -1 0.000421270088 -0.496208519
v -1.33333325 0 -0.493999988
v -1.33333302 0.000421270088 -0.496208519
v -1.66666663 0 -0.493999988
v -1.66666663 0.000421270088 -0.496208519
v -1.778 0 -0.493999988
v -1.77797771 0.000421270088 -0.496208519
v -1.82429492 0.00488069979 -0.493999988
v -1.82420504 0.00529483659 -0.496208519
v -1.87135541 0.0205831267 -0.493999988
v -1.87117612 0.0209674351 -0.496208519
v -1.91536927 0.0476047918 -0.493999958
v -1.9151063 0.047937803 -0.496208489
v -1.9523952 0.0846307427 -0.493999988
v -1.95206201 0.0848934948 -0.496208578
v -1.97941685 0.128644541 -0.493999988
v -1.9790324 0.128823742 -0.496208519
v -1.99511945 0.175705194 -0.493999988
v -1.99470508 0.175794989 -0.496208519
v -2 0.222000003 -0.493999988
v -1.9995786 0.222022131 -0.496208519
v -2 0.25 -0.493999988
v -1.9995786 0.25 -0.496208519
v -2 0.5 -0.493999988
v -1.9995786 0.5 -0.496208519
v -2 0.75 -0.493999988
v -1.9995786 0.74999994 -0.496208519
v -2 1 -0.493999988
v -1.9995786 1 -0.496208519
v -2 1.25 -0.493999988
v -1.9995786 1.24999988 -0.496208519
v -2 1.5 -0.493999988
v -1.9995786 1.49999988 -0.496208519
v -2 1.75 -0.493999988
v -1.9995786 1.74999988 -0.496208519
v -2 2 -0.493999988
v -1.9995786 2 -0.496208519
v -2 2.25 -0.493999988
v -1.9995786 2.25 -0.496208519
v -2 2.5 -0.493999988
v -1.9995786 2.49999976 -0.496208519
v -2 2.75 -0.493999988
v -1.9995786 2.74999976 -0.496208519
v -2 3 -0.493999988
v -1.9995786 2.99999976 -0.496208519
v -2 3.25 -0.493999988
v -1.9995786 3.24999976 -0.496208519
v -2 3.5 -0.493999988
v -1.9995786 3.49999976 -0.496208519
v -2 3.75 -0.493999988
v -1.9995786 3.74999976 -0.496208519
v -2 3.77799988 -0.493999988
v -1.9995786 3.77797747 -0.496208519
v -1.99511945 3.82429481 -0.493999988
v -1.99470508 3.82420444 -0.496208519
v -1.97941685 3.87135506 -0.493999988
v -1.9790324 3.87117577 -0.496208519
v -1.9523952 3.91536927 -0.493999958
v -1.95206237 3.91510701 -0.496208578
v -1.91536927 3.95239496 -0.493999988
v -1.9151063 3.95206141 -0.496208519
v -1.87135541 3.97941685 -0.493999988
v -1.87117612 3.97903204 -0.496208519
v -1.82429492 3.99511957 -0.493999988
v -1.82420504 3.99470472 -0.496208519
v -1.778 4 -0.493999988
v -1.77797771 3.99957871 -0.496208519
v -1.66666663 4 -0.493999988
v -1.66666663 3.99957871 -0.496208519
v -1.33333325 4 -0.493999988
v -1.33333302 3.99957871 -0.496208519
v -1 4 -0.493999988
v -1 3.99957871 -0.496208519
v -0.666666627 4 -0.493999988
v -0.666666508 3.99957871 -0.496208519
v -0.333333254 4 -0.493999988
v -0.333333254 3.99957871 -0.496208519
v 0 4 -0.493999988
v 0 3.99957871 -0.496208519
v 0.333333492 4 -0.493999988
v 0.333333462 3.99957871 -0.496208519
v 0.666666746 4 -0.493999988
v 0.666666627 3.99957871 -0.496208519
v 1 4 -0.493999988
v 1 3.99957871 -0.496208519
v 1.33333349 4 -0.493999988
v 1.33333325 3.99957871 -0.496208519
v 1.66666675 4 -0.493999988
v 1.66666663 3.99957871 -0.496208519
v 1.778 4 -0.493999988
v 1.77797771 3.99957871 -0.496208519
v 1.82429492 3.99511933 -0.493999988
v 1.82420516 3.99470544 -0.496208578
v 1.87135541 3.97941685 -0.493999988
v 1.87117624 3.97903252 -0.496208578
v 1.91536927 3.95239496 -0.493999958
v 1.9151063 3.95206141 -0.496208489
v 1.9523952 3.91536951 -0.493999988
v 1.95206201 3.91510653 -0.496208578
v 1.97941685 3.87135553 -0.493999988
v 1.9790324 3.871176 -0.496208519
v 1.99511945 3.82429481 -0.493999988
v 1.99470508 3.82420444 -0.496208519
v 2 3.77799988 -0.493999988
v 1.9995786 3.77797747 -0.496208519
v 2 3.75 -0.493999988
v 1.9995786 3.74999976 -0.496208519
v 2 3.5 -0.493999988
v 1.9995786 3.49999976 -0.496208519
v 2 3.25 -0.493999988
v 1.9995786 3.24999976 -0.496208519
v 2 3 -0.493999988
v 1.9995786 2.99999976 -0.496208519
v 2 2.75 -0.493999988
v 1.9995786 2.74999976 -0.496208519
v 2 2.5 -0.493999988
v 1.9995786 2.49999976 -0.496208519
v 2 2.25 -0.493999988
v 1.9995786 2.25 -0.496208519
v 2 2 -0.493999988
v 1.9995786 2 -0.496208519
v 2 1.75 -0.493999988
v 1.9995786 1.74999988 -0.496208519
v 2 1.5 -0.493999988
v 1.9995786 1.49999988 -0.496208519
v 2 1.25 -0.493999988
v 1.9995786 1.24999988 -0.496208519
v 2 1 -0.493999988
v 1.9995786 1 -0.496208519
v 2 0.75 -0.493999988
v 1.9995786 0.74999994 -0.496208519
v 2 0.5 -0.493999988
v 1.9995786 0.5 -0.496208519
v 2 0.25 -0.493999988
v 1.9995786 0.25 -0.496208519
v 1.33333325 0.25 0.5
v 1.66666663 0.25 0.5
v 1 0.25 0.5
v 0.666666627 0.25 0.5
v 0.333333254 0.25 0.5
v 0 0.25 0.5
v -0.333333492 0.25 0.5
v -0.666666746 0.25 0.5
v -1 0.25 0.5
v -1.33333349 0.25 0.5
v -1.66666675 0.25 0.5
v 1.66666663 0.5 0.5
v 1.33333325 0.5 0.5
v 1 0.5 0.5
v 0.666666627 0.5 0.5
v 0.333333254 0.5 0.5
v 0 0.5 0.5
v -0.333333492 0.5 0.5
v -0.666666746 0.5 0.5
v -1 0.5 0.5
v -1.33333349 0.5 0.5
v -1.66666675 0.5 0.5
v 1.66666663 0.75 0.5
v 1.33333325 0.75 0.5
v 1 0.75 0.5
v 0.666666627 0.75 0.5
v 0.333333254 0.75 0.5
v 0 0.75 0.5
v -0.333333492 0.75 0.5
v -0.666666746 0.75 0.5
v -1 0.75 0.5
v -1.33333349 0.75 0.5
v -1.66666675 0.75 0.5
v 1.66666663 1 0.5
v 1.33333325 1 0.5
v 1 1 0.5
v 0.666666627 1 0.5
v 0.333333254 1 0.5
v 0 1 0.5
v -0.333333492 1 0.5
v -0.666666746 1 0.5
v -1 1 0.5
v -1.33333349 1 0.5
v -1.66666675 1 0.5
v 1.66666663 1.25 0.5
v 1.33333325 1.25 0.5
v 1 1.25 0.5
v 0.666666627 1.25 0.5
v 0.333333254 1.25 0.5
v 0 1.25 0.5
v -0.333333492 1.25 0.5
v -0.666666746 1.25 0.5
v -1 1.25 0.5
v -1.33333349 1.25 0.5
v -1.66666675 1.25 0.5
v 1.66666663 1.5 0.5
v 1.33333325 1.5 0.5
v 1 1.5 0.5
v 0.666666627 1.5 0.5
v 0.333333254 1.5 0.5
v 0 1.5 0.5
v -0.333333492 1.5 0.5
v -0.666666746 1.5 0.5
v -1 1.5 0.5
v -1.33333349 1.5 0.5
v -1.66666675 1.5 0.5
v 1.66666663 1.75 0.5
v 1.33333325 1.75 0.5
v 1 1.75 0.5
v 0.666666627 1.75 0.5
v 0.333333254 1.75 0.5
v 0 1.75 0.5
v -0.333333492 1.75 0.5
v -0.666666746 1.75 0.5
v -1 1.75 0.5
v -1.33333349 1.75 0.5
v -1.66666675 1.75 0.5
v 1.66666663 2 0.5
v 1.33333325 2 0.5
v 1 2 0.5
v 0.666666627 2 0.5
v 0.333333254 2 0.5
v 0 2 0.5
v -0.333333492 2 0.5
v -0.666666746 2 0.5
v -1 2 0.5
v -1.33333349 2 0.5
v -1.66666675 2 0.5
v 1.66666663 2.25 0.5
v 1.33333325 2.25 0.5
v 1 2.25 0.5
v 0.666666627 2.25 0.5
v 0.333333254 2.25 0.5
v 0 2.25 0.5
v -0.333333492 2.25 0.5
v -0.666666746 2.25 0.5
v -1 2.25 0.5
v -1.33333349 2.25 0.5
v -1.66666675 2.25 0.5
v 1.66666663 2.5 0.5
v 1.33333325 2.5 0.5
v 1 2.5 0.5
v 0.666666627 2.5 0.5
v 0.333333254 2.5 0.5
v 0 2.5 0.5
v -0.333333492 2.5 0.5
v -0.666666746 2.5 0.5
v -1 2.5 0.5
v -1.33333349 2.5 0.5
v -1.66666675 2.5 0.5
v 1.66666663 2.75 0.5
v 1.33333325 2.75 0.5
v 1 2.75 0.5
v 0.666666627 2.75 0.5
v 0.333333254 2.75 0.5
v 0 2.75 0.5
v -0.333333492 2.75 0.5
v -0.666666746 2.75 0.5
v -1 2.75 0.5
v -1.33333349 2.75 0.5
v -1.66666675 2.75 0.5
v 1.66666663 3 0.5
v 1.33333325 3 0.5
v 1 3 0.5
v 0.666666627 3 0.5
v 0.333333254 3 0.5
v 0 3 0.5
v -0.333333492 3 0.5
v -0.666666746 3 0.5
v -1 3 0.5
v -1.33333349 3 0.5
v -1.66666675 3 0.5
v 1.66666663 3.25 0.5
v 1.33333325 3.25 0.5
v 1 3.25 0.5
v 0.666666627 3.25 0.5
v 0.333333254 3.25 0.5
v 0 3.25 0.5
v -0.333333492 3.25 0.5
v -0.666666746 3.25 0.5
v -1 3.25 0.5
v -1.33333349 3.25 0.5
v -1.66666675 3.25 0.5
v 1.66666663 3.5 0.5
v 1.33333325 3.5 0.5
v 1 3.5 0.5
v 0.666666627 3.5 0.5
v 0.333333254 3.5 0.5
v 0 3.5 0.5
v -0.333333492 3.5 0.5
v -0.666666746 3.5 0.5
v -1 3.5 0.5
v -1.33333349 3.5 0.5
v -1.66666675 3.5 0.5
v 1.66666663 3.75 0.5
v 1.33333325 3.75 0.5
v 1 3.75 0.5
v 0.666666627 3.75 0.5
v 0.333333254 3.75 0.5
v 0 3.75 0.5
v -0.333333492 3.75 0.5
v -0.666666746 3.75 0.5
v -1 3.75 0.5
v -1.33333349 3.75 0.5
v -1.66666675 3.75 0.5
v -1.33333325 0.25 -0.5
v -1.66666663 0.25 -0.5
v -1 0.25 -0.5
v -0.666666627 0.25 -0.5
v -0.333333254 0.25 -0.5
v 0 0.25 -0.5
v 0.333333492 0.25 -0.5
v 0.666666746 0.25 -0.5
v 1 0.25 -0.5
v 1.33333349 0.25 -0.5
v 1.66666675 0.25 -0.5
v -1.66666663 0.5 -0.5
v -1.33333325 0.5 -0.5
v -1 0.5 -0.5
v -0.666666627 0.5 -0.5
v -0.333333254 0.5 -0.5
v 0 0.5 -0.5
v 0.333333492 0.5 -0.5
v 0.666666746 0.5 -0.5
v 1 0.5 -0.5
v 1.33333349 0.5 -0.5
v 1.66666675 0.5 -0.5
v -1.66666663 0.75 -0.5
v -1.33333325 0.75 -0.5
v -1 0.75 -0.5
v -0.666666627 0.75 -0.5
v -0.333333254 0.75 -0.5
v 0 0.75 -0.5
v 0.333333492 0.75 -0.5
v 0.666666746 0.75 -0.5
v 1 0.75 -0.5
v 1.33333349 0.75 -0.5
v 1.66666675 0.75 -0.5
v -1.66666663 1 -0.5
v -1.33333325 1 -0.5
v -1 1 -0.5
v -0.666666627 1 -0.5
v -0.333333254 1 -0.5
v 0 1 -0.5
v 0.333333492 1 -0.5
v 0.666666746 1 -0.5
v 1 1 -0.5
v 1.33333349 1 -0.5
v 1.66666675 1 -0.5
v -1.66666663 1.25 -0.5
v -1.33333325 1.25 -0.5
v -1 1.25 -0.5
v -0.666666627 1.25 -0.5
v -0.333333254 1.25 -0.5
v 0 1.25 -0.5
v 0.333333492 1.25 -0.5
v 0.666666746 1.25 -0.5
v 1 1.25 -0.5
v 1.33333349 1.25 -0.5
v 1.66666675 1.25 -0.5
v -1.66666663 1.5 -0.5
v -1.33333325 1.5 -0.5
v -1 1.5 -0.5
v -0.666666627 1.5 -0.5
v -0.333333254 1.5 -0.5
v 0 1.5 -0.5
v 0.333333492 1.5 -0.5
v 0.666666746 1.5 -0.5
v 1 1.5 -0.5
v 1.33333349 1.5 -0.5
v 1.66666675 1.5 -0.5
v -1.66666663 1.75 -0.5
v -1.33333325 1.75 -0.5
v -1 1.75 -0.5
v -0.666666627 1.75 -0.5
v -0.333333254 1.75 -0.5
v 0 1.75 -0.5
v 0.333333492 1.75 -0.5
v 0.666666746 1.75 -0.5
v 1 1.75 -0.5
v 1.33333349 1.75 -0.5
v 1.66666675 1.75 -0.5
v -1.66666663 2 -0.5
v -1.33333325 2 -0.5
v -1 2 -0.5
v -0.666666627 2 -0.5
v -0.333333254 2 -0.5
v 0 2 -0.5
v 0.333333492 2 -0.5
v 0.666666746 2 -0.5
v 1 2 -0.5
v 1.33333349 2 -0.5
v 1.66666675 2 -0.5
v -1.66666663 2.25 -0.5
v -1.33333325 2.25 -0.5
v -1 2.25 -0.5
v -0.666666627 2.25 -0.5
v -0.333333254 2.25 -0.5
v 0 2.25 -0.5
v 0.333333492 2.25 -0.5
v 0.666666746 2.25 -0.5
v 1 2.25 -0.5
v 1.33333349 2.25 -0.5
v 1.66666675 2.25 -0.5
v -1.66666663 2.5 -0.5
v -1.33333325 2.5 -0.5
v -1 2.5 -0.5
v -0.666666627 2.5 -0.5
v -0.333333254 2.5 -0.5
v 0 2.5 -0.5
v 0.333333492 2.5 -0.5
v 0.666666746 2.5 -0.5
v 1 2.5 -0.5
v 1.33333349 2.5 -0.5
v 1.66666675 2.5 -0.5
v -1.66666663 2.75 -0.5
v -1.33333325 2.75 -0.5
v -1 2.75 -0.5
v -0.666666627 2.75 -0.5
v -0.333333254 2.75 -0.5
v 0 2.75 -0.5
v 0.333333492 2.75 -0.5
v 0.666666746 2.75 -0.5
v 1 2.75 -0.5
v 1.33333349 2.75 -0.5
v 1.66666675 2.75 -0.5
v -1.66666663 3 -0.5
v -1.33333325 3 -0.5
v -1 3 -0.5
v -0.666666627 3 -0.5
v -0.333333254 3 -0.5
v 0 3 -0.5
v 0.333333492 3 -0.5
v 0.666666746 3 -0.5
v 1 3 -0.5
v 1.33333349 3 -0.5
v 1.66666675 3 -0.5
v -1.66666663 3.25 -0.5
v -1.33333325 3.25 -0.5
v -1 3.25 -0.5
v -0.666666627 3.25 -0.5
v -0.333333254 3.25 -0.5
v 0 3.25 -0.5
v 0.333333492 3.25 -0.5
v 0.666666746 3.25 -0.5
v 1 3.25 -0.5
v 1.33333349 3.25 -0.5
v 1.66666675 3.25 -0.5
v -1.66666663 3.5 -0.5
v -1.33333325 3.5 -0.5
v -1 3.5 -0.5
v -0.666666627 3.5 -0.5
v -0.333333254 3.5 -0.5
v 0 3.5 -0.5
v 0.333333492 3.5 -0.5
v 0.666666746 3.5 -0.5
v 1 3.5 -0.5
v 1.33333349 3.5 -0.5
v 1.66666675 3.5 -0.5
v -1.66666663 3.75 -0.5
v -1.33333325 3.75 -0.5
v -1 3.75 -0.5
v -0.666666627 3.75 -0.5
v -0.333333254 3.75 -0.5
v 0 3.75 -0.5
v 0.333333492 3.75 -0.5
v 0.666666746 3.75 -0.5
v 1 3.75 -0.5
v 1.33333349 3.75 -0.5
v 1.66666675 3.75 -0.5
v -0.333333254 4 -0.166666746
v -0.666666627 4 -0.166666746
v 0 4 -0.166666746
v 0.333333492 4 -0.166666746
v 0.666666746 4 -0.166666746
v 1 4 -0.399999976
v 0.937324882 4 -0.399999976
v 0.937324584 4 -0.166666746
v -0.333333254 4 0.166666508
v -0.666666627 4 0.166666508
v 0 4 0.166666508
v 0.333333492 4 0.166666508
v 0.666666746 4 0.166666508
v 0.937324107 4 0.166666508
v 0.937324107 4 0.400000006
v 1 4 0.400000006
v 0.666666627 0 -0.166666657
v 1 0 -0.166666657
v 0.333333254 0 -0.166666657
v 0 0 -0.166666657
v -0.333333492 0 -0.166666657
v -0.666666746 0 -0.166666657
v -1 0 -0.166666657
v -1.33333337 0 -0.399999976
v -1.28440571 0 -0.399999976
v -1.28440571 0 -0.166666657
v 0.666666627 0 0.166666687
v 1 0 0.166666687
v 0.333333254 0 0.166666687
v 0 0 0.166666687
v -0.333333492 0 0.166666687
v -0.666666746 0 0.166666687
v -1 0 0.166666687
v 1.33333325 0 0.400000006
v 1.28440583 0 0.400000006
v 1.28440595 0 0.166666687
v 2 1 0.166666746
v 2 0.777465165 0.166666746
v 2 0.777465165 0.400000006
v 2 0.75 0.400000006
v 2 1 -0.166666627
v 2 1.25 -0.166666627
v 2 1.25 0.166666746
v 2 1.5 -0.166666627
v 2 1.5 0.166666746
v 2 1.75 -0.166666627
v 2 1.75 0.166666746
v 2 2 -0.166666627
v 2 2 0.166666746
v 2 2.25 -0.166666627
v 2 2.25 0.166666746
v 2 2.5 -0.166666627
v 2 2.5 0.166666746
v 2 2.75 -0.166666627
v 2 2.75 0.166666746
v 2 3 -0.166666627
v 2 3 0.166666746
v -2 1 -0.166666746
v -2 0.777465463 -0.166666746
v -2 0.777465463 -0.399999976
v -2 0.75 -0.399999976
v -2 1 0.166666627
v -2 1.25 0.166666627
v -2 1.25 -0.166666746
v -2 1.5 0.166666627
v -2 1.5 -0.166666746
v -2 1.75 0.166666627
v -2 1.75 -0.166666746
v -2 2 0.166666627
v -2 2 -0.166666746
v -2 2.25 0.166666627
v -2 2.25 -0.166666746
v -2 2.5 0.166666627
v -2 2.5 -0.166666746
v -2 2.75 0.166666627
v -2 2.75 -0.166666746
v -2 3 0.166666627
v -2 3 -0.166666746
v -1.40007627 4 -0.399999976
v -1.66666663 4 -0.399999976
v -1.33333325 4 -0.399999976
v -1 4 -0.399999976
v -1.11999333 4 -0.399999976
v -0.937324524 4 -0.166666746
v -0.937324524 4 -0.399999976
v 1.33333349 4 -0.399999976
v 1.11999273 4 -0.399999976
v 1.66666675 4 -0.399999976
v 1.40007436 4 -0.399999976
v -0.937324524 4 0.166666508
v -1.66666675 4 0.400000006
v -1.40007603 4 0.400000006
v -1.33333337 4 0.400000006
v -1.11999333 4 0.400000006
v -1 4 0.400000006
v -0.937324524 4 0.400000006
v 1.11999273 4 0.400000006
v 1.33333337 4 0.400000006
v 1.40007436 4 0.400000006
v 1.66666663 4 0.400000006
v 1.33333337 0 -0.399999976
v 1.56309748 0 -0.399999976
v 1.66666675 0 -0.399999976
v 1.28440607 0 -0.399999976
v 1.28440595 0 -0.166666657
v -1.56309772 0 -0.399999976
v -1.66666663 0 -0.399999976
v -1.28440571 0 0.166666687
v 1.56309748 0 0.400000006
v 1.66666663 0 0.400000006
v -1.28440571 0 0.400000006
v -1.33333349 0 0.400000006
v -1.56309772 0 0.400000006
v -1.66666675 0 0.400000006
v 2 0.5 -0.399999976
v 2 0.25 -0.399999976
v 2 0.263283819 -0.399999976
v 2 0.2632837 0.400000006
v 2 0.25 0.400000006
v 2 0.5 0.400000006
v 2 0.75 -0.399999976
v 2 0.568282068 -0.399999976
v 2 0.568282187 0.400000006
v 2 0.777465165 -0.399999976
v 2 0.777465165 -0.166666627
v 2 3.24099803 -0.399999976
v 2 3.25 -0.399999976
v 2 3.03181458 -0.166666627
v 2 3.03181458 -0.399999976
v 2 3.03181458 0.166666746
v 2 3.03181458 0.400000006
v 2 3.25 0.400000006
v 2 3.24099827 0.400000006
v 2 3.5 -0.399999976
v 2 3.5 0.400000006
v 2 3.54599738 -0.399999976
v 2 3.75 -0.399999976
v 2 3.54599714 0.400000006
v 2 3.75 0.400000006
v -2 0.5 0.400000006
v -2 0.25 0.400000006
v -2 0.263282239 0.400000006
v -2 0.263282269 -0.399999976
v -2 0.25 -0.399999976
v -2 0.5 -0.399999976
v -2 0.75 0.400000006
v -2 0.568282366 0.400000006
v -2 0.568282366 -0.399999976
v -2 0.777465463 0.166666627
v -2 0.777465403 0.400000006
v -2 3.03181505 0.166666627
v -2 3.03181505 0.400000006
v -2 3.24099731 0.400000006
v -2 3.25 0.400000006
v -2 3.03181505 -0.166666746
v -2 3.24099731 -0.399999976
v -2 3.03181505 -0.399999976
v -2 3.25 -0.399999976
v -2 3.5 0.400000006
v -2 3.5 -0.399999976
v -2 3.75 0.400000006
v -2 3.54599738 0.400000006
v -2 3.54599738 -0.399999976
v -2 3.75 -0.399999976
v -1.82429492 3.99511957 -0.399999976
v -1.778 4 -0.399999976
v -1.87135541 3.97941685 -0.399999976
v -1.91536927 3.95239496 -0.399999976
v -1.99511945 3.82429481 -0.399999976
v -2 3.77799988 -0.399999976
v -1.97941685 3.8713553 -0.399999976
v -1.97458518 3.87922525 -0.399999976
v -1.9523952 3.91536927 -0.399999976
v -1.99511945 3.82429481 0.400000006
v -2 3.77799988 0.400000006
v -1.97941685 3.87135553 0.400000006
v -1.9523952 3.91536951 0.400000006
v -1.97458529 3.87922525 0.400000006
v -1.778 4 0.400000006
v -1.82429492 3.99511933 0.400000006
v -1.87135541 3.97941685 0.400000006
v -1.91536927 3.95239496 0.400000006
v 2 3.77799988 -0.399999976
v 1.99511945 3.82429481 -0.399999976
v 1.97941685 3.87135553 -0.399999976
v 1.97458553 3.87922502 -0.399999976
v 1.9523952 3.91536951 -0.399999976
v 1.82429492 3.99511933 -0.399999976
v 1.778 4 -0.399999976
v 1.87135541 3.97941685 -0.399999976
v 1.91536927 3.95239496 -0.399999976
v 1.82429492 3.99511957 0.400000006
v 1.778 4 0.400000006
v 1.87135541 3.97941685 0.400000006
v 1.91536927 3.95239496 0.400000006
v 1.99511945 3.82429481 0.400000006
v 2 3.77799988 0.400000006
v 1.97941685 3.8713553 0.400000006
v 1.97458541 3.87922502 0.400000006
v 1.9523952 3.91536927 0.400000006
v 1.82429492 0.00488069979 -0.399999976
v 1.778 0 -0.399999976
v 1.87135541 0.0205831267 -0.399999976
v 1.87922621 0.0254152603 -0.399999976
v 1.91536927 0.0476047918 -0.399999976
v 1.99511945 0.175705194 -0.399999976
v 2 0.222000003 -0.399999976
v 1.97941685 0.128644541 -0.399999976
v 1.9523952 0.0846307427 -0.399999976
v 1.99511945 0.175705194 0.400000006
v 2 0.222000003 0.400000006
v 1.97941685 0.128644541 0.400000006
v 1.9523952 0.0846307427 0.400000006
v 1.82429492 0.00488069979 0.400000006
v 1.778 0 0.400000006
v 1.87135541 0.0205831267 0.400000006
v 1.87922621 0.0254152603 0.400000006
v 1.91536927 0.0476047918 0.400000006
v -1.99511945 0.175705194 -0.399999976
v -2 0.222000003 -0.399999976
v -1.97941685 0.128644541 -0.399999976
v -1.9523952 0.0846307427 -0.399999976
v -1.82429492 0.00488069979 -0.399999976
v -1.778 0 -0.399999976
v -1.87135541 0.0205831267 -0.399999976
v -1.91536927 0.0476047918 -0.399999976
v -1.8792243 0.0254141018 -0.399999976
v -1.82429492 0.00488069979 0.400000006
v -1.778 0 0.400000006
v -1.87135541 0.0205831267 0.400000006
v -1.91536927 0.0476047918 0.400000006
v -1.8792243 0.025414139 0.400000006
v -1.99511945 0.175705194 0.400000006
v -2 0.222000003 0.400000006
v -1.97941685 0.128644541 0.400000006
v -1.9523952 0.0846307427 0.400000006
v -1.71961689 4 -0.399999976
v 1.71961737 4 -0.399999976
v -1.71961677 4 0.400000006
v 1.71961725 4 0.400000006
v -1.62472439 0.279914021 0.400000006
v -1.45765102 0.128487229 0.400000006
v -1.45765102 0.128487229 -0.399999976
v -1.62472439 0.279913902 -0.399999976
v -1.77615273 0.446989059 0.400000006
v -1.77615261 0.446989179 -0.399999976
v -1.91047478 0.62810123 0.400000006
v -1.91047478 0.62810123 -0.399999976
v -1.77615297 3.36229086 0.400000006
v -1.91047502 3.18117857 0.400000006
v -1.91047502 3.18117857 -0.399999976
v -1.77615297 3.36229086 -0.399999976
v -1.62472534 3.5293653 0.400000006
v -1.62472534 3.5293653 -0.399999976
v -1.45765054 3.68079329 0.400000006
v -1.45765066 3.68079329 -0.399999976
v -1.27653956 3.8151145 0.400000006
v -1.27653968 3.81511426 -0.399999976
v -1.08313227 3.9310379 0.400000006
v -1.08313227 3.9310379 -0.399999976
v 1.27653825 3.81511521 0.400000006
v 1.08313203 3.93103838 0.400000006
v 1.08313203 3.93103838 -0.399999976
v 1.27653825 3.81511521 -0.399999976
v 1.45765066 3.68079281 0.400000006
v 1.45765078 3.68079281 -0.399999976
v 1.62472558 3.52936506 0.400000006
v 1.6247257 3.52936506 -0.399999976
v 1.77615297 3.36229062 0.400000006
v 1.77615309 3.36229086 -0.399999976
v 1.91047442 3.18117929 0.400000006
v 1.91047442 3.18117905 -0.399999976
v 1.77615345 0.446989894 0.400000006
v 1.91047478 0.628100991 0.400000006
v 1.91047466 0.628100991 -0.399999976
v 1.77615345 0.446990013 -0.399999976
v 1.62472582 0.279915452 0.400000006
v 1.62472582 0.279915452 -0.399999976
v 1.45765078 0.12848711 0.400000006
v 1.45765078 0.12848711 -0.399999976
g 
f 1 4 3 2
f 4 6 5 3
f 7 8 4 1
f 8 9 6 4
f 10 11 8 7
f 11 12 9 8
f 13 14 11 10
f 14 15 12 11
f 16 17 14 13
f 17 18 15 14
f 19 20 17 16
f 20 21 18 17
f 22 23 20 19
f 23 24 21 20
f 25 26 23 22
f 26 27 24 23
f 28 29 26 25
f 29 30 27 26
f 31 32 29 28
f 32 33 30 29
f 34 35 32 31
f 35 36 33 32
f 37 38 35 34
f 38 39 36 35
f 40 41 38 37
f 41 42 39 38
f 43 44 41 40
f 44 45 42 41
f 46 47 44 43
f 47 48 45 44
f 49 50 47 46
f 50 51 48 47
f 52 53 50 49
f 53 54 51 50
f 55 56 53 52
f 56 57 54 53
f 58 59 56 55
f 59 60 57 56
f 61 62 59 58
f 62 63 60 59
f 64 65 62 61
f 65 66 63 62
f 67 68 65 64
f 68 69 66 65
f 70 71 68 67
f 71 72 69 68
f 73 74 71 70
f 74 75 72 71
f 76 77 74 73
f 77 78 75 74
f 79 80 77 76
f 80 81 78 77
f 82 83 80 79
f 83 84 81 80
f 85 86 83 82
f 86 87 84 83
f 88 89 86 85
f 89 90 87 86
f 91 92 89 88
f 92 93 90 89
f 94 95 92 91
f 95 96 93 92
f 97 98 95 94
f 98 99 96 95
f 100 101 98 97
f 101 102 99 98
f 103 104 101 100
f 104 105 102 101
f 106 107 104 103
f 107 108 105 104
f 109 110 107 106
f 110 111 108 107
f 112 113 110 109
f 113 114 111 110
f 115 116 113 112
f 116 117 114 113
f 118 119 116 115
f 119 120 117 116
f 121 122 119 118
f 122 123 120 119
f 124 125 122 121
f 125 126 123 122
f 127 128 125 124
f 128 129 126 125
f 130 131 128 127
f 131 132 129 128
f 133 134 131 130
f 134 135 132 131
f 136 137 134 133
f 137 138 135 134
f 139 140 137 136
f 140 141 138 137
f 142 143 140 139
f 143 144 141 140
f 145 146 143 142
f 146 147 144 143
f 148 149 146 145
f 149 150 147 146
f 151 152 149 148
f 152 153 150 149
f 154 155 152 151
f 155 156 153 152
f 157 158 155 154
f 158 159 156 155
f 160 161 158 157
f 161 162 159 158
f 163 164 161 160
f 164 165 162 161
f 166 167 164 163
f 167 168 165 164
f 169 170 167 166
f 170 171 168 167
f 172 173 170 169
f 173 174 171 170
f 175 176 173 172
f 176 177 174 173
f 178 179 176 175
f 179 180 177 176
f 181 182 179 178
f 182 183 180 179
f 184 185 182 181
f 185 186 183 182
f 187 188 185 184
f 188 189 186 185
f 190 191 188 187
f 191 192 189 188
f 193 194 191 190
f 194 195 192 191
f 196 197 194 193
f 197 198 195 194
f 199 200 197 196
f 200 201 198 197
f 202 203 200 199
f 203 204 201 200
f 205 206 203 202
f 206 207 204 203
f 208 209 206 205
f 209 210 207 206
f 211 212 209 208
f 212 213 210 209
f 214 215 212 211
f 215 216 213 212
f 217 218 215 214
f 218 219 216 215
f 220 221 218 217
f 221 222 219 218
f 223 224 221 220
f 224 225 222 221
f 226 227 224 223
f 227 228 225 224
f 229 230 227 226
f 230 231 228 227
f 232 233 230 229
f 233 234 231 230
f 235 236 233 232
f 236 237 234 233
f 238 239 236 235
f 239 240 237 236
f 241 242 239 238
f 242 243 240 239
f 244 245 242 241
f 245 246 243 242
f 247 248 245 244
f 248 249 246 245
f 250 251 248 247
f 251 252 249 248
f 2 3 251 250
f 3 5 252 251
f 253 256 255 254
f 256 5 6 255
f 257 258 256 253
f 258 252 5 256
f 259 260 258 257
f 260 249 252 258
f 261 262 260 259
f 262 246 249 260
f 263 264 262 261
f 264 243 246 262
f 265 266 264 263
f 266 240 243 264
f 267 268 266 265
f 268 237 240 266
f 269 270 268 267
f 270 234 237 268
f 271 272 270 269
f 272 231 234 270
f 273 274 272 271
f 274 228 231 272
f 275 276 274 273
f 276 225 228 274
f 277 278 276 275
f 278 222 225 276
f 279 280 278 277
f 280 219 222 278
f 281 282 280 279
f 282 216 219 280
f 283 284 282 281
f 284 213 216 282
f 285 286 284 283
f 286 210 213 284
f 287 288 286 285
f 288 207 210 286
f 289 290 288 287
f 290 204 207 288
f 291 292 290 289
f 292 201 204 290
f 293 294 292 291
f 294 198 201 292
f 295 296 294 293
f 296 195 198 294
f 297 298 296 295
f 298 192 195 296
f 299 300 298 297
f 300 189 192 298
f 301 302 300 299
f 302 186 189 300
f 303 304 302 301
f 304 183 186 302
f 305 306 304 303
f 306 180 183 304
f 307 308 306 305
f 308 177 180 306
f 309 310 308 307
f 310 174 177 308
f 311 312 310 309
f 312 171 174 310
f 313 314 312 311
f 314 168 171 312
f 315 316 314 313
f 316 165 168 314
f 317 318 316 315
f 318 162 165 316
f 319 320 318 317
f 320 159 162 318
f 321 322 320 319
f 322 156 159 320
f 323 324 322 321
f 324 153 156 322
f 325 326 324 323
f 326 150 153 324
f 327 328 326 325
f 328 147 150 326
f 329 330 328 327
f 330 144 147 328
f 331 332 330 329
f 332 141 144 330
f 333 334 332 331
f 334 138 141 332
f 335 336 334 333
f 336 135 138 334
f 337 338 336 335
f 338 132 135 336
f 339 340 338 337
f 340 129 132 338
f 341 342 340 339
f 342 126 129 340
f 343 344 342 341
f 344 123 126 342
f 345 346 344 343
f 346 120 123 344
f 347 348 346 345
f 348 117 120 346
f 349 350 348 347
f 350 114 117 348
f 351 352 350 349
f 352 111 114 350
f 353 354 352 351
f 354 108 111 352
f 355 356 354 353
f 356 105 108 354
f 357 358 356 355
f 358 102 105 356
f 359 360 358 357
f 360 99 102 358
f 361 362 360 359
f 362 96 99 360
f 363 364 362 361
f 364 93 96 362
f 365 366 364 363
f 366 90 93 364
f 367 368 366 365
f 368 87 90 366
f 369 370 368 367
f 370 84 87 368
f 371 372 370 369
f 372 81 84 370
f 373 374 372 371
f 374 78 81 372
f 375 376 374 373
f 376 75 78 374
f 377 378 376 375
f 378 72 75 376
f 379 380 378 377
f 380 69 72 378
f 381 382 380 379
f 382 66 69 380
f 383 384 382 381
f 384 63 66 382
f 385 386 384 383
f 386 60 63 384
f 387 388 386 385
f 388 57 60 386
f 389 390 388 387
f 390 54 57 388
f 391 392 390 389
f 392 51 54 390
f 393 394 392 391
f 394 48 51 392
f 395 396 394 393
f 396 45 48 394
f 397 398 396 395
f 398 42 45 396
f 399 400 398 397
f 400 39 42 398
f 401 402 400 399
f 402 36 39 400
f 403 404 402 401
f 404 33 36 402
f 405 406 404 403
f 406 30 33 404
f 407 408 406 405
f 408 27 30 406
f 409 410 408 407
f 410 24 27 408
f 411 412 410 409
f 412 21 24 410
f 413 414 412 411
f 414 18 21 412
f 415 416 414 413
f 416 15 18 414
f 417 418 416 415
f 418 12 15 416
f 419 420 418 417
f 420 9 12 418
f 254 255 420 419
f 255 6 9 420
f 421 424 423 422
f 424 426 425 423
f 427 428 424 421
f 428 429 426 424
f 430 431 428 427
f 431 432 429 428
f 433 434 431 430
f 434 435 432 431
f 436 437 434 433
f 437 438 435 434
f 439 440 437 436
f 440 441 438 437
f 442 443 440 439
f 443 444 441 440
f 445 446 443 442
f 446 447 444 443
f 448 449 446 445
f 449 450 447 446
f 451 452 449 448
f 452 453 450 449
f 454 455 452 451
f 455 456 453 452
f 457 458 455 454
f 458 459 456 455
f 460 461 458 457
f 461 462 459 458
f 463 464 461 460
f 464 465 462 461
f 466 467 464 463
f 467 468 465 464
f 469 470 467 466
f 470 471 468 467
f 472 473 470 469
f 473 474 471 470
f 475 476 473 472
f 476 477 474 473
f 478 479 476 475
f 479 480 477 476
f 481 482 479 478
f 482 483 480 479
f 484 485 482 481
f 485 486 483 482
f 487 488 485 484
f 488 489 486 485
f 490 491 488 487
f 491 492 489 488
f 493 494 491 490
f 494 495 492 491
f 496 497 494 493
f 497 498 495 494
f 499 500 497 496
f 500 501 498 497
f 502 503 500 499
f 503 504 501 500
f 505 506 503 502
f 506 507 504 503
f 508 509 506 505
f 509 510 507 506
f 511 512 509 508
f 512 513 510 509
f 514 515 512 511
f 515 516 513 512
f 517 518 515 514
f 518 519 516 515
f 520 521 518 517
f 521 522 519 518
f 523 524 521 520
f 524 525 522 521
f 526 527 524 523
f 527 528 525 524
f 529 530 527 526
f 530 531 528 527
f 532 533 530 529
f 533 534 531 530
f 535 536 533 532
f 536 537 534 533
f 538 539 536 535
f 539 540 537 536
f 541 542 539 538
f 542 543 540 539
f 544 545 542 541
f 545 546 543 542
f 547 548 545 544
f 548 549 546 545
f 550 551 548 547
f 551 552 549 548
f 553 554 551 550
f 554 555 552 551
f 556 557 554 553
f 557 558 555 554
f 559 560 557 556
f 560 561 558 557
f 562 563 560 559
f 563 564 561 560
f 565 566 563 562
f 566 567 564 563
f 568 569 566 565
f 569 570 567 566
f 571 572 569 568
f 572 573 570 569
f 574 575 572 571
f 575 576 573 572
f 577 578 575 574
f 578 579 576 575
f 580 581 578 577
f 581 582 579 578
f 583 584 581 580
f 584 585 582 581
f 586 587 584 583
f 587 588 585 584
f 589 590 587 586
f 590 591 588 587
f 592 593 590 589
f 593 594 591 590
f 595 596 593 592
f 596 597 594 593
f 598 599 596 595
f 599 600 597 596
f 601 602 599 598
f 602 603 600 599
f 604 605 602 601
f 605 606 603 602
f 607 608 605 604
f 608 609 606 605
f 610 611 608 607
f 611 612 609 608
f 613 614 611 610
f 614 615 612 611
f 616 617 614 613
f 617 618 615 614
f 619 620 617 616
f 620 621 618 617
f 622 623 620 619
f 623 624 621 620
f 625 626 623 622
f 626 627 624 623
f 628 629 626 625
f 629 630 627 626
f 631 632 629 628
f 632 633 630 629
f 634 635 632 631
f 635 636 633 632
f 637 638 635 634
f 638 639 636 635
f 640 641 638 637
f 641 642 639 638
f 643 644 641 640
f 644 645 642 641
f 646 647 644 643
f 647 648 645 644
f 649 650 647 646
f 650 651 648 647
f 652 653 650 649
f 653 654 651 650
f 655 656 653 652
f 656 657 654 653
f 658 659 656 655
f 659 660 657 656
f 661 662 659 658
f 662 663 660 659
f 664 665 662 661
f 665 666 663 662
f 667 668 665 664
f 668 669 666 665
f 670 671 668 667
f 671 672 669 668
f 422 423 671 670
f 423 425 672 671
f 673 676 675 674
f 676 425 426 675
f 677 678 676 673
f 678 672 425 676
f 679 680 678 677
f 680 669 672 678
f 681 682 680 679
f 682 666 669 680
f 683 684 682 681
f 684 663 666 682
f 685 686 684 683
f 686 660 663 684
f 687 688 686 685
f 688 657 660 686
f 689 690 688 687
f 690 654 657 688
f 691 692 690 689
f 692 651 654 690
f 693 694 692 691
f 694 648 651 692
f 695 696 694 693
f 696 645 648 694
f 697 698 696 695
f 698 642 645 696
f 699 700 698 697
f 700 639 642 698
f 701 702 700 699
f 702 636 639 700
f 703 704 702 701
f 704 633 636 702
f 705 706 704 703
f 706 630 633 704
f 707 708 706 705
f 708 627 630 706
f 709 710 708 707
f 710 624 627 708
f 711 712 710 709
f 712 621 624 710
f 713 714 712 711
f 714 618 621 712
f 715 716 714 713
f 716 615 618 714
f 717 718 716 715
f 718 612 615 716
f 719 720 718 717
f 720 609 612 718
f 721 722 720 719
f 722 606 609 720
f 723 724 722 721
f 724 603 606 722
f 725 726 724 723
f 726 600 603 724
f 727 728 726 725
f 728 597 600 726
f 729 730 728 727
f 730 594 597 728
f 731 732 730 729
f 732 591 594 730
f 733 734 732 731
f 734 588 591 732
f 735 736 734 733
f 736 585 588 734
f 737 738 736 735
f 738 582 585 736
f 739 740 738 737
f 740 579 582 738
f 741 742 740 739
f 742 576 579 740
f 743 744 742 741
f 744 573 576 742
f 745 746 744 743
f 746 570 573 744
f 747 748 746 745
f 748 567 570 746
f 749 750 748 747
f 750 564 567 748
f 751 752 750 749
f 752 561 564 750
f 753 754 752 751
f 754 558 561 752
f 755 756 754 753
f 756 555 558 754
f 757 758 756 755
f 758 552 555 756
f 759 760 758 757
f 760 549 552 758
f 761 762 760 759
f 762 546 549 760
f 763 764 762 761
f 764 543 546 762
f 765 766 764 763
f 766 540 543 764
f 767 768 766 765
f 768 537 540 766
f 769 770 768 767
f 770 534 537 768
f 771 772 770 769
f 772 531 534 770
f 773 774 772 771
f 774 528 531 772
f 775 776 774 773
f 776 525 528 774
f 777 778 776 775
f 778 522 525 776
f 779 780 778 777
f 780 519 522 778
f 781 782 780 779
f 782 516 519 780
f 783 784 782 781
f 784 513 516 782
f 785 786 784 783
f 786 510 513 784
f 787 788 786 785
f 788 507 510 786
f 789 790 788 787
f 790 504 507 788
f 791 792 790 789
f 792 501 504 790
f 793 794 792 791
f 794 498 501 792
f 795 796 794 793
f 796 495 498 794
f 797 798 796 795
f 798 492 495 796
f 799 800 798 797
f 800 489 492 798
f 801 802 800 799
f 802 486 489 800
f 803 804 802 801
f 804 483 486 802
f 805 806 804 803
f 806 480 483 804
f 807 808 806 805
f 808 477 480 806
f 809 810 808 807
f 810 474 477 808
f 811 812 810 809
f 812 471 474 810
f 813 814 812 811
f 814 468 471 812
f 815 816 814 813
f 816 465 468 814
f 817 818 816 815
f 818 462 465 816
f 819 820 818 817
f 820 459 462 818
f 821 822 820 819
f 822 456 459 820
f 823 824 822 821
f 824 453 456 822
f 825 826 824 823
f 826 450 453 824
f 827 828 826 825
f 828 447 450 826
f 829 830 828 827
f 830 444 447 828
f 831 832 830 829
f 832 441 444 830
f 833 834 832 831
f 834 438 441 832
f 835 836 834 833
f 836 435 438 834
f 837 838 836 835
f 838 432 435 836
f 839 840 838 837
f 840 429 432 838
f 674 675 840 839
f 675 426 429 840
f 339 337 842 841
f 341 339 841 843
f 343 341 843 844
f 345 343 844 845
f 347 345 845 846
f 349 347 846 847
f 351 349 847 848
f 353 351 848 849
f 355 353 849 850
f 357 355 850 851
f 842 319 317 852
f 841 842 852 853
f 843 841 853 854
f 844 843 854 855
f 845 844 855 856
f 846 845 856 857
f 847 846 857 858
f 848 847 858 859
f 849 848 859 860
f 850 849 860 861
f 851 850 861 862
f 375 851 862 377
f 852 317 315 863
f 853 852 863 864
f 854 853 864 865
f 855 854 865 866
f 856 855 866 867
f 857 856 867 868
f 858 857 868 869
f 859 858 869 870
f 860 859 870 871
f 861 860 871 872
f 862 861 872 873
f 377 862 873 379
f 863 315 313 874
f 864 863 874 875
f 865 864 875 876
f 866 865 876 877
f 867 866 877 878
f 868 867 878 879
f 869 868 879 880
f 870 869 880 881
f 871 870 881 882
f 872 871 882 883
f 873 872 883 884
f 379 873 884 381
f 874 313 311 885
f 875 874 885 886
f 876 875 886 887
f 877 876 887 888
f 878 877 888 889
f 879 878 889 890
f 880 879 890 891
f 881 880 891 892
f 882 881 892 893
f 883 882 893 894
f 884 883 894 895
f 381 884 895 383
f 885 311 309 896
f 886 885 896 897
f 887 886 897 898
f 888 887 898 899
f 889 888 899 900
f 890 889 900 901
f 891 890 901 902
f 892 891 902 903
f 893 892 903 904
f 894 893 904 905
f 895 894 905 906
f 383 895 906 385
f 896 309 307 907
f 897 896 907 908
f 898 897 908 909
f 899 898 909 910
f 900 899 910 911
f 901 900 911 912
f 902 901 912 913
f 903 902 913 914
f 904 903 914 915
f 905 904 915 916
f 906 905 916 917
f 385 906 917 387
f 907 307 305 918
f 908 907 918 919
f 909 908 919 920
f 910 909 920 921
f 911 910 921 922
f 912 911 922 923
f 913 912 923 924
f 914 913 924 925
f 915 914 925 926
f 916 915 926 927
f 917 916 927 928
f 387 917 928 389
f 918 305 303 929
f 919 918 929 930
f 920 919 930 931
f 921 920 931 932
f 922 921 932 933
f 923 922 933 934
f 924 923 934 935
f 925 924 935 936
f 926 925 936 937
f 927 926 937 938
f 928 927 938 939
f 389 928 939 391
f 929 303 301 940
f 930 929 940 941
f 931 930 941 942
f 932 931 942 943
f 933 932 943 944
f 934 933 944 945
f 935 934 945 946
f 936 935 946 947
f 937 936 947 948
f 938 937 948 949
f 939 938 949 950
f 391 939 950 393
f 940 301 299 951
f 941 940 951 952
f 942 941 952 953
f 943 942 953 954
f 944 943 954 955
f 945 944 955 956
f 946 945 956 957
f 947 946 957 958
f 948 947 958 959
f 949 948 959 960
f 950 949 960 961
f 393 950 961 395
f 951 299 297 962
f 952 951 962 963
f 953 952 963 964
f 954 953 964 965
f 955 954 965 966
f 956 955 966 967
f 957 956 967 968
f 958 957 968 969
f 959 958 969 970
f 960 959 970 971
f 961 960 971 972
f 395 961 972 397
f 962 297 295 973
f 963 962 973 974
f 964 963 974 975
f 965 964 975 976
f 966 965 976 977
f 967 966 977 978
f 968 967 978 979
f 969 968 979 980
f 970 969 980 981
f 971 970 981 982
f 972 971 982 983
f 397 972 983 399
f 973 295 293 984
f 974 973 984 985
f 975 974 985 986
f 976 975 986 987
f 977 976 987 988
f 978 977 988 989
f 979 978 989 990
f 980 979 990 991
f 981 980 991 992
f 982 981 992 993
f 983 982 993 994
f 399 983 994 401
f 984 293 291 995
f 985 984 995 996
f 986 985 996 997
f 987 986 997 998
f 988 987 998 999
f 989 988 999 1000
f 990 989 1000 1001
f 991 990 1001 1002
f 992 991 1002 1003
f 993 992 1003 1004
f 994 993 1004 1005
f 401 994 1005 403
f 996 995 273 271
f 997 996 271 269
f 998 997 269 267
f 999 998 267 265
f 1000 999 265 263
f 1001 1000 263 261
f 1002 1001 261 259
f 1003 1002 259 257
f 1004 1003 257 253
f 1005 1004 253 254
f 625 622 1007 1006
f 628 625 1006 1008
f 631 628 1008 1009
f 634 631 1009 1010
f 637 634 1010 1011
f 640 637 1011 1012
f 643 640 1012 1013
f 646 643 1013 1014
f 649 646 1014 1015
f 652 649 1015 1016
f 1007 595 592 1017
f 1006 1007 1017 1018
f 1008 1006 1018 1019
f 1009 1008 1019 1020
f 1010 1009 1020 1021
f 1011 1010 1021 1022
f 1012 1011 1022 1023
f 1013 1012 1023 1024
f 1014 1013 1024 1025
f 1015 1014 1025 1026
f 1016 1015 1026 1027
f 427 1016 1027 430
f 1017 592 589 1028
f 1018 1017 1028 1029
f 1019 1018 1029 1030
f 1020 1019 1030 1031
f 1021 1020 1031 1032
f 1022 1021 1032 1033
f 1023 1022 1033 1034
f 1024 1023 1034 1035
f 1025 1024 1035 1036
f 1026 1025 1036 1037
f 1027 1026 1037 1038
f 430 1027 1038 433
f 1028 589 586 1039
f 1029 1028 1039 1040
f 1030 1029 1040 1041
f 1031 1030 1041 1042
f 1032 1031 1042 1043
f 1033 1032 1043 1044
f 1034 1033 1044 1045
f 1035 1034 1045 1046
f 1036 1035 1046 1047
f 1037 1036 1047 1048
f 1038 1037 1048 1049
f 433 1038 1049 436
f 1039 586 583 1050
f 1040 1039 1050 1051
f 1041 1040 1051 1052
f 1042 1041 1052 1053
f 1043 1042 1053 1054
f 1044 1043 1054 1055
f 1045 1044 1055 1056
f 1046 1045 1056 1057
f 1047 1046 1057 1058
f 1048 1047 1058 1059
f 1049 1048 1059 1060
f 436 1049 1060 439
f 1050 583 580 1061
f 1051 1050 1061 1062
f 1052 1051 1062 1063
f 1053 1052 1063 1064
f 1054 1053 1064 1065
f 1055 1054 1065 1066
f 1056 1055 1066 1067
f 1057 1056 1067 1068
f 1058 1057 1068 1069
f 1059 1058 1069 1070
f 1060 1059 1070 1071
f 439 1060 1071 442
f 1061 580 577 1072
f 1062 1061 1072 1073
f 1063 1062 1073 1074
f 1064 1063 1074 1075
f 1065 1064 1075 1076
f 1066 1065 1076 1077
f 1067 1066 1077 1078
f 1068 1067 1078 1079
f 1069 1068 1079 1080
f 1070 1069 1080 1081
f 1071 1070 1081 1082
f 442 1071 1082 445
f 1072 577 574 1083
f 1073 1072 1083 1084
f 1074 1073 1084 1085
f 1075 1074 1085 1086
f 1076 1075 1086 1087
f 1077 1076 1087 1088
f 1078 1077 1088 1089
f 1079 1078 1089 1090
f 1080 1079 1090 1091
f 1081 1080 1091 1092
f 1082 1081 1092 1093
f 445 1082 1093 448
f 1083 574 571 1094
f 1084 1083 1094 1095
f 1085 1084 1095 1096
f 1086 1085 1096 1097
f 1087 1086 1097 1098
f 1088 1087 1098 1099
f 1089 1088 1099 1100
f 1090 1089 1100 1101
f 1091 1090 1101 1102
f 1092 1091 1102 1103
f 1093 1092 1103 1104
f 448 1093 1104 451
f 1094 571 568 1105
f 1095 1094 1105 1106
f 1096 1095 1106 1107
f 1097 1096 1107 1108
f 1098 1097 1108 1109
f 1099 1098 1109 1110
f 1100 1099 1110 1111
f 1101 1100 1111 1112
f 1102 1101 1112 1113
f 1103 1102 1113 1114
f 1104 1103 1114 1115
f 451 1104 1115 454
f 1105 568 565 1116
f 1106 1105 1116 1117
f 1107 1106 1117 1118
f 1108 1107 1118 1119
f 1109 1108 1119 1120
f 1110 1109 1120 1121
f 1111 1110 1121 1122
f 1112 1111 1122 1123
f 1113 1112 1123 1124
f 1114 1113 1124 1125
f 1115 1114 1125 1126
f 454 1115 1126 457
f 1116 565 562 1127
f 1117 1116 1127 1128
f 1118 1117 1128 1129
f 1119 1118 1129 1130
f 1120 1119 1130 1131
f 1121 1120 1131 1132
f 1122 1121 1132 1133
f 1123 1122 1133 1134
f 1124 1123 1134 1135
f 1125 1124 1135 1136
f 1126 1125 1136 1137
f 457 1126 1137 460
f 1127 562 559 1138
f 1128 1127 1138 1139
f 1129 1128 1139 1140
f 1130 1129 1140 1141
f 1131 1130 1141 1142
f 1132 1131 1142 1143
f 1133 1132 1143 1144
f 1134 1133 1144 1145
f 1135 1134 1145 1146
f 1136 1135 1146 1147
f 1137 1136 1147 1148
f 460 1137 1148 463
f 1138 559 556 1149
f 1139 1138 1149 1150
f 1140 1139 1150 1151
f 1141 1140 1151 1152
f 1142 1141 1152 1153
f 1143 1142 1153 1154
f 1144 1143 1154 1155
f 1145 1144 1155 1156
f 1146 1145 1156 1157
f 1147 1146 1157 1158
f 1148 1147 1158 1159
f 463 1148 1159 466
f 1149 556 553 1160
f 1150 1149 1160 1161
f 1151 1150 1161 1162
f 1152 1151 1162 1163
f 1153 1152 1163 1164
f 1154 1153 1164 1165
f 1155 1154 1165 1166
f 1156 1155 1166 1167
f 1157 1156 1167 1168
f 1158 1157 1168 1169
f 1159 1158 1169 1170
f 466 1159 1170 469
f 1161 1160 526 523
f 1162 1161 523 520
f 1163 1162 520 517
f 1164 1163 517 514
f 1165 1164 514 511
f 1166 1165 511 508
f 1167 1166 508 505
f 1168 1167 505 502
f 1169 1168 502 499
f 1170 1169 499 496
f 781 779 1172 1171
f 783 781 1171 1173
f 785 783 1173 1174
f 787 785 1174 1175
f 1175 1178 1177 1176 789 787
f 1171 1172 1180 1179
f 1173 1171 1179 1181
f 1174 1173 1181 1182
f 1175 1174 1182 1183
f 1180 247 244 1179
f 1179 244 241 1181
f 1181 241 238 1182
f 1182 238 235 1183
f 232 1186 1185 1184 1183 235
f 695 693 1188 1187
f 697 695 1187 1189
f 699 697 1189 1190
f 701 699 1190 1191
f 703 701 1191 1192
f 705 703 1192 1193
f 1193 1196 1195 1194 707 705
f 1187 1188 1198 1197
f 1189 1187 1197 1199
f 1190 1189 1199 1200
f 1191 1190 1200 1201
f 1192 1191 1201 1202
f 1193 1192 1202 1203
f 1198 1206 1205 1204 127 124
f 1197 1198 124 121
f 1199 1197 121 118
f 1200 1199 118 115
f 1201 1200 115 112
f 1202 1201 112 109
f 1203 1202 109 106
f 163 1210 1209 1208 1207 166
f 1211 833 831 1212
f 1207 1211 1212 1213
f 166 1207 1213 169
f 1212 831 829 1214
f 1213 1212 1214 1215
f 169 1213 1215 172
f 1214 829 827 1216
f 1215 1214 1216 1217
f 172 1215 1217 175
f 1216 827 825 1218
f 1217 1216 1218 1219
f 175 1217 1219 178
f 1218 825 823 1220
f 1219 1218 1220 1221
f 178 1219 1221 181
f 1220 823 821 1222
f 1221 1220 1222 1223
f 181 1221 1223 184
f 1222 821 819 1224
f 1223 1222 1224 1225
f 184 1223 1225 187
f 1224 819 817 1226
f 1225 1224 1226 1227
f 187 1225 1227 190
f 731 1231 1230 1229 1228 733
f 1232 64 61 1233
f 1228 1232 1233 1234
f 733 1228 1234 735
f 1233 61 58 1235
f 1234 1233 1235 1236
f 735 1234 1236 737
f 1235 58 55 1237
f 1236 1235 1237 1238
f 737 1236 1238 739
f 1237 55 52 1239
f 1238 1237 1239 1240
f 739 1238 1240 741
f 1239 52 49 1241
f 1240 1239 1241 1242
f 741 1240 1242 743
f 1241 49 46 1243
f 1242 1241 1243 1244
f 743 1242 1244 745
f 1243 46 43 1245
f 1244 1243 1245 1246
f 745 1244 1246 747
f 1245 43 40 1247
f 1246 1245 1247 1248
f 747 1246 1248 749
f 337 335 333 331 329 327 325 323 321 319 842
f 375 373 371 369 367 365 363 361 359 357 851
f 291 289 287 285 283 281 279 277 275 273 995
f 254 419 417 415 413 411 409 407 405 403 1005
f 622 619 616 613 610 607 604 601 598 595 1007
f 427 421 422 670 667 664 661 658 655 652 1016
f 553 550 547 544 541 538 535 532 529 526 1160
f 496 493 490 487 484 481 478 475 472 469 1170
f 1249 1251 775 773 1250
f 777 775 1251 1253 1252
f 1254 1172 779 777 1252 1255
f 791 789 1176 1257 1256
f 793 791 1256 1259 1258
f 1180 1172 1254 1260
f 1184 1178 1175 1183
f 2 1263 1262 1261 1
f 250 1265 1264 1263 2
f 1260 1266 1265 250 247 1180
f 229 1268 1267 1186 232
f 226 1270 1269 1268 229
f 1271 691 689 1273 1272
f 1274 1275 1188 693 691 1271
f 1276 1277 709 707 1194
f 1188 1275 1206 1198
f 1278 1196 1193 1203
f 1279 1280 130 127 1204
f 1281 1278 1203 106 103 1282
f 1283 1282 103 100 1284
f 1285 1287 1286 839 837
f 1288 1290 160 157 1289
f 1291 1292 1285 837 835
f 1293 1210 163 160 1290
f 833 1211 1295 1294 1291 835
f 1208 1295 1211 1207
f 1296 1299 1298 1226 817 815 1297
f 1300 1227 1226 1298
f 1301 1303 1302 193 190 1227 1300
f 1304 1297 815 813
f 1302 1305 196 193
f 811 1307 1306 1304 813
f 1308 1309 199 196 1305
f 1310 1312 1311 73 70
f 1313 1315 729 727 1314
f 1316 1317 1310 70 67
f 1318 1231 731 729 1315
f 1319 1320 1316 67 64 1232
f 1229 1319 1232 1228
f 1247 40 37 1324 1323 1322 1321
f 1248 1247 1321 1325
f 1326 1328 751 749 1248 1325 1327
f 34 1329 1324 37
f 751 1328 1330 753
f 1331 1332 1329 34 31
f 1333 1334 755 753 1330
f 1335 1336 771 769
f 1337 1335 769 767
f 1338 1337 767 765
f 757 1340 1339 759
f 759 1339 1341 761
f 1342 1343 763 761 1341
f 1344 1345 28 25
f 1346 1344 25 22
f 1347 1348 1346 22 19
f 1349 1350 10 7
f 1350 1351 13 10
f 1351 1352 16 13
f 807 1354 1353 809
f 805 1355 1354 807
f 803 1357 1356 1355 805
f 797 795 1359 1358
f 1358 1360 799 797
f 801 799 1360 1361
f 1362 1363 223 220
f 1364 1362 220 217
f 1365 1364 217 214
f 205 202 1367 1366
f 1366 1368 208 205
f 1369 1370 211 208 1368
f 1371 1372 687 685
f 1373 1371 685 683
f 1374 1373 683 681 1375
f 673 674 1377 1376
f 1376 1378 677 673
f 679 677 1378 1379
f 1380 1381 154 151
f 1382 1380 151 148
f 1383 1382 148 145
f 136 133 1385 1384
f 139 136 1384 1386
f 1387 1388 142 139 1386
f 1389 1390 725 723
f 1391 1389 723 721
f 721 719 1392 1391
f 711 1394 1393 713
f 713 1393 1395 715
f 715 1395 1397 1396 717
f 1398 1399 97 94
f 1400 1398 94 91
f 1401 1402 1400 91 88
f 1403 79 76 1404
f 1405 82 79 1403
f 1405 1406 85 82
f 1343 1338 765 763
f 1352 1347 19 16
f 801 1361 1357 803
f 1365 214 211 1370
f 1379 1375 681 679
f 145 142 1388 1383
f 1396 1392 719 717
f 1406 1401 88 85
f 771 1336 1407 1250 773
f 793 1258 1408 1359 795
f 1 1261 1409 1349 7
f 223 1363 1410 1270 226
f 1372 1273 689 687
f 1277 1394 711 709
f 1280 1385 133 130
f 1399 1284 100 97
f 1286 1377 674 839
f 1289 157 154 1381
f 1307 811 809 1353
f 1309 1367 202 199
f 1311 1404 76 73
f 727 725 1390 1314
f 1345 1331 31 28
f 1334 1340 757 755
f 1411 1414 1413 1412
f 1415 1416 1414 1411
f 1417 1418 1416 1415
f 1283 1412 1281 1282
f 1400 1402 1411 1412 1283 1284 1399 1398
f 1311 1312 1415 1411 1402 1401 1406 1405 1403 1404
f 1310 1317 1417 1415 1312
f 1320 1417 1317 1316
f 1231 1318 1418 1230
f 1315 1313 1416 1418 1318
f 1396 1397 1414 1416 1313 1314 1390 1389 1391 1392
f 1413 1414 1397 1395 1393 1394 1277 1276
f 1194 1195 1413 1276
f 1278 1281 1412 1413 1195 1196
f 1229 1230 1418 1417 1320 1319
f 1419 1422 1421 1420
f 1423 1424 1422 1419
f 1425 1426 1424 1423
f 1427 1428 1426 1425
f 1429 1430 1428 1427
f 1323 1420 1322
f 1419 1420 1323 1324 1329 1332
f 1345 1344 1346 1348 1423 1419 1332 1331
f 1349 1409 1425 1423 1348 1347 1352 1351 1350
f 1262 1427 1425 1409 1261
f 1264 1429 1427 1262 1263
f 1429 1264 1265 1266
f 1252 1253 1430 1255
f 1251 1249 1428 1430 1253
f 1250 1407 1426 1428 1249
f 1337 1338 1343 1342 1424 1426 1407 1336 1335
f 1422 1424 1342 1341 1339 1340 1334 1333
f 1421 1422 1333 1330 1328 1326
f 1326 1327 1421
f 1321 1322 1420 1421 1327 1325
f 1429 1266 1260 1254 1255 1430
f 1431 1434 1433 1432
f 1435 1436 1434 1431
f 1437 1438 1436 1435
f 1439 1440 1438 1437
f 1441 1442 1440 1439
f 1267 1432 1185 1186
f 1269 1431 1432 1267 1268
f 1435 1431 1269 1270 1410
f 1365 1370 1369 1437 1435 1410 1363 1362 1364
f 1308 1439 1437 1369 1368 1366 1367 1309
f 1303 1441 1439 1308 1305 1302
f 1303 1301 1441
f 1299 1296 1442
f 1304 1306 1440 1442 1296 1297
f 1356 1438 1440 1306 1307 1353 1354 1355
f 1360 1358 1359 1408 1436 1438 1356 1357 1361
f 1434 1436 1408 1258 1259
f 1433 1434 1259 1256 1257
f 1176 1177 1433 1257
f 1433 1177 1178 1184 1185 1432
f 1298 1299 1442 1441 1301 1300
f 1443 1446 1445 1444
f 1447 1448 1446 1443
f 1449 1450 1448 1447
f 1293 1444 1209 1210
f 1443 1444 1293 1290 1288
f 1388 1387 1447 1443 1288 1289 1381 1380 1382 1383
f 1449 1447 1387 1386 1384 1385 1280 1279
f 1449 1279 1204 1205
f 1450 1274 1271 1272
f 1448 1450 1272 1273 1372 1371 1373 1374
f 1376 1377 1286 1287 1446 1448 1374 1375 1379 1378
f 1445 1446 1287 1285 1292
f 1291 1294 1445 1292
f 1445 1294 1295 1208 1209 1444
f 1275 1274 1450 1449 1205 1206
